

#f0
        filters = {};
--

#f1
        filters ={"classification_type": ["Commercial"],
                  "floor_area": { "min": 10000, "max": 50000 }}
--

#p1

  filters= {'lighting': ['LED'], 'state': ['OK'], 'classification_type': ['Residential']}
--

#p2
  #load_loc_environment;
  #set_target_v1_analyze_peers;
  #p1;
  #fire_query;
--


--

#p3
  #load_piz_environment;
  #set_target_v1_analyze_peers;
  #p1;
  #fire_query;
--


#run_loc_v1_analyze_peers_query
  #load_loc_environment;
  #set_target_v1_analyze_peers;
  #data_v1_analyze_peers;
  #fire_query;
--
